{
    "client": "sandbox216",
    "email": "larochelle.brian@gmail.com",
    "evernoteConnected": false,
    "familyName": "larochelle",
    "fullName": "brian larochelle",
    "gender": "male",
    "givenName": "brian",
    "google": "105702319917846808322",
    "id": "d5f1c6f6-a7fe-4e81-9333-3aa95f0ffb18",
    "locale": "en",
    "picture": "https://lh3.googleusercontent.com/-HNwTmm48igQ/AAAAAAAAAAI/AAAAAAAAAJA/0dFQai-1NL0/photo.jpg?sz=50",
    "pocketConnected": false,
    "wave": "2013.38",
    "wordPressConnected": false
}


